{"properties": [
  {
    "name": "redis.port",
    "type": "java.lang.String",
    "description": "A description for 'redis.port'"
  },
  {
    "name": "redis.hostname",
    "type": "java.lang.String",
    "description": "A description for 'redis.hostname'"
  },
  {
    "name": "client.code",
    "type": "java.lang.String",
    "description": "A description for 'client.code'"
  }
]}